module mellium.im/xmpp

go 1.18

require (
	golang.org/x/image v0.0.0-20181116024801-cd38e8056d9b
	golang.org/x/net v0.0.0-20190813141303-74dc4d7220e7
	golang.org/x/sys v0.0.0-20210110051926-789bb1bd4061
	golang.org/x/text v0.3.2
	golang.org/x/tools v0.0.0-20180917221912-90fa682c2a6e
	mellium.im/sasl v0.2.1
	mellium.im/xmlstream v0.15.4-0.20211023152852-0ca80a938137
)

require (
	golang.org/x/crypto v0.0.0-20190701094942-4def268fd1a4 // indirect
	mellium.im/reader v0.1.0 // indirect
)
